Tutorial 1 - Intro to R, Rstudio and RMarkdown; Basic Data Exploration and Manipulation
…
This is the most complicated piece of data transformation were going to learn. Its a little tough for your first day, but its also foundational.

What if I want to know the total number of HRs hit by all teams in a season from 1960-2019? Our problem is our data frame is organized by team-season, not just season. To fix that I could use code like this:

Teams %>% # Take the teams data, THEN
  filter(yearID %in% c(1960:2019)) %>%  # Get only the years 1960-2019, THEN
                                        # (We could've used >= and <=, but this is more compact. Can you interpret this code?)

  group_by(yearID) %>% # For every year...
  
  # Create a new variable that is the sum of HRs for each group indicated above, in this case each year
  summarize(HRs = sum(HR)) 

## # A tibble: 60 x 2
##    yearID   HRs
##     <int> <int>
##  1   1960  2128
##  2   1961  2730
##  3   1962  3001
##  4   1963  2704
##  5   1964  2762
##  6   1965  2688
##  7   1966  2743
##  8   1967  2299
##  9   1968  1995
## 10   1969  3119
## # ... with 50 more rows
…
Note you can also group by multiple variables. For example, if I wanted to get the number of HRs hit each year from 1960-2019 for each League (AL and NL) I could do:

Teams %>% # Take the teams data, THEN
  filter(yearID %in% c(1960:2019)) %>%  # Get only the years 1960-2019, THEN
                                        # (We could've used >= and <=, but this is more compact. Can you interpret this code?)

  group_by(yearID, lgID) %>% # For every year AND LEAGUE...
  
  # Create a new variable that is the sum of HRs for each group indicated above, in this case year AND league
  summarize(HRs = sum(HR)) 

## `summarise()` has grouped output by 'yearID'. You can override using the `.groups` argument.

## # A tibble: 120 x 3
## # Groups:   yearID [60]
##    yearID lgID    HRs
##     <int> <fct> <int>
##  1   1960 AL     1086
##  2   1960 NL     1042
##  3   1961 AL     1534
##  4   1961 NL     1196
##  5   1962 AL     1552
##  6   1962 NL     1449
##  7   1963 AL     1489
##  8   1963 NL     1215
##  9   1964 AL     1551
## 10   1964 NL     1211
## # ... with 110 more rows
…
