Tutorial 5 - Soccer
…
Lab Activity 1: Take a look at the data and see if you can puzzle out what it might show. Use this link to cross-reference what you see in the data with what this post says should be there.

Now lets dive into the data available for one of the competitions - the NWSLs 2018-19 season. Lets pull the list of available matches:

# Pull match data for one competition
matches <- comps %>% 
  filter(competition_name == "NWSL") %>% 
  FreeMatches()

## [1] "Whilst we are keen to share data and facilitate research, we also urge you to be responsible with the data. Please register your details on https://www.statsbomb.com/resource-centre and read our User Agreement carefully."

# Print
matches

## # A tibble: 36 x 40
##    match_id match_date kick_off     home_score away_score match_status
##       <int> <chr>      <chr>             <int>      <int> <chr>       
##  1     7494 2018-08-06 02:30:00.000          1          2 available   
##  2     7486 2018-07-16 05:00:00.000          3          1 available   
##  3     7497 2018-08-11 02:00:00.000          1          1 available   
##  4     7430 2018-04-15 01:00:00.000          2          4 available   
##  5     7444 2018-05-06 21:00:00.000          1          1 available   
##  6     7443 2018-05-05 21:30:00.000          2          3 available   
##  7     7521 2018-06-03 01:00:00.000          1          2 available   
##  8     7492 2018-08-06 01:30:00.000          2          2 available   
##  9     7524 2018-07-12 02:30:00.000          3          1 available   
## 10     7496 2018-08-09 04:00:00.000          1          0 available   
## # ... with 26 more rows, and 34 more variables: match_status_360 <chr>,
## #   last_updated <chr>, last_updated_360 <chr>, match_week <int>,
## #   competition.competition_id <int>, competition.country_name <chr>,
## #   competition.competition_name <chr>, season.season_id <int>,
## #   season.season_name <chr>, home_team.home_team_id <int>,
## #   home_team.home_team_name <chr>, home_team.home_team_gender <chr>,
## #   home_team.home_team_group <lgl>, home_team.managers <list>, ...
…
## Joining, by = c("period", "match_id")

# Print
events

## # A tibble: 3,531 x 143
##    id    index period timestamp minute second possession duration related_events
##    <chr> <int>  <dbl> <chr>      <int>  <int>      <int>    <dbl> <list>        
##  1 fcdc~     1      1 00:00:00~      0      0          1     0    <NULL>        
##  2 d341~     2      1 00:00:00~      0      0          1     0    <NULL>        
##  3 aef7~     3      1 00:00:00~      0      0          1    NA    <chr [1]>     
##  4 c76c~     4      1 00:00:00~      0      0          1    NA    <chr [1]>     
##  5 58cc~     5      1 00:00:00~      0      0          2     0.84 <chr [1]>     
##  6 8624~     6      1 00:00:01~      0      1          2    NA    <chr [1]>     
##  7 e7a6~     7      1 00:00:01~      0      1          2     1.28 <chr [2]>     
##  8 e9ee~     8      1 00:00:02~      0      2          2     2.77 <chr [2]>     
##  9 301c~     9      1 00:00:05~      0      5          2    NA    <chr [1]>     
## 10 82b7~    10      1 00:00:05~      0      5          2     4.92 <chr [1]>     
## # ... with 3,521 more rows, and 134 more variables: location <list>,
## #   under_pressure <lgl>, counterpress <lgl>, type.id <int>, type.name <chr>,
## #   possession_team.id <int>, possession_team.name <chr>,
## #   play_pattern.id <int>, play_pattern.name <chr>, team.id <int>,
## #   team.name <chr>, tactics.formation <int>, tactics.lineup <list>,
## #   player.id <int>, player.name <chr>, position.id <int>, position.name <chr>,
## #   pass.length <dbl>, pass.angle <dbl>, pass.end_location <list>, ...
…
